{
    "KPackageStructure": "KWin/Decoration",
    "KPlugin": {
        "Authors": [
            {
                "Email": "mgraesslin@kde.org",
                "Name": "Martin Gräßlin",
                "Name[ar]": "مارتن جراجلين",
                "Name[be]": "Martin Gräßlin",
                "Name[bg]": "Martin Gräßlin",
                "Name[ca@valencia]": "Martin Gräßlin",
                "Name[ca]": "Martin Gräßlin",
                "Name[cs]": "Martin Gräßlin",
                "Name[en_GB]": "Martin Gräßlin",
                "Name[es]": "Martin Gräßlin",
                "Name[et]": "Martin Gräßlin",
                "Name[eu]": "Martin Gräßlin",
                "Name[fr]": "Martin Gräßlin",
                "Name[ia]": "Martin Gräßlin",
                "Name[it]": "Martin Gräßlin",
                "Name[ka]": "მარტინ გრესსლინი",
                "Name[nl]": "Martin Gräßlin",
                "Name[pl]": "Martin Gräßlin",
                "Name[pt]": "Martin Gräßlin",
                "Name[ru]": "Martin Gräßlin",
                "Name[sl]": "Martin Gräßlin",
                "Name[ta]": "மார்ட்டின் கிராஸ்லின்",
                "Name[tr]": "Martin Gräßlin",
                "Name[uk]": "Martin Gräßlin",
                "Name[vi]": "Martin Gräßlin",
                "Name[x-test]": "xxMartin Gräßlinxx",
                "Name[zh_CN]": "Martin Gräßlin",
                "Name[zh_TW]": "Martin Gräßlin"
            }
        ],
        "Description": "The classic theme known from KDE 3",
        "Description[ar]": "السّمة الكلاسيكيّة المعروفة من كدي 3",
        "Description[be]": "Класічная тэма, вядомая з KDE 3",
        "Description[bg]": "Класическата тема, позната от KDE 3",
        "Description[ca@valencia]": "El tema clàssic conegut des de KDE 3",
        "Description[ca]": "El tema clàssic conegut des del KDE 3",
        "Description[cs]": "Klasický motiv známý z KDE 3",
        "Description[en_GB]": "The classic theme known from KDE 3",
        "Description[es]": "El clásico tema conocido desde KDE 3",
        "Description[et]": "Klassikaline KDE 3 ajast tuntud teema",
        "Description[eu]": "KDE 3tik ezaguna den gai klasikoa",
        "Description[fr]": "Le thème classique, connu depuis KDE3",
        "Description[ia]": "Le thema classic cognoscite ex KDE 3",
        "Description[it]": "Il noto tema classico di KDE 3",
        "Description[ka]": "კლასიკური თემა KDE 3 -დან",
        "Description[nl]": "Het klassieke thema bekend van KDE 3",
        "Description[pl]": "Klasyczny wystój znany z KDE 3",
        "Description[pt]": "O tema clássico e conhecido do KDE 3",
        "Description[ru]": "Классическая тема, известная со времён KDE 3.",
        "Description[sl]": "Klasična tema znana iz KDE 3",
        "Description[ta]": "கே.டீ.யீ. 3-இலிருந்தான காலங்கடந்த தோற்றத்திட்டம்",
        "Description[tr]": "KDE 3 zamanından klasik tema",
        "Description[uk]": "Класична тема, відома з часів KDE 3",
        "Description[vi]": "Chủ đề cổ điển được biết đến từ KDE 3",
        "Description[x-test]": "xxThe classic theme known from KDE 3xx",
        "Description[zh_CN]": "KDE 3 时代的经典主题",
        "Description[zh_TW]": "從 KDE3 來的傳統主題",
        "Id": "kwin4_decoration_qml_plastik",
        "License": "GPL",
        "Name": "Plastik",
        "Name[ar]": "بلاستك",
        "Name[be]": "Plastik",
        "Name[bg]": "Plastik",
        "Name[ca@valencia]": "Plastik",
        "Name[ca]": "Plastik",
        "Name[cs]": "Plastik",
        "Name[en_GB]": "Plastik",
        "Name[es]": "Plastik",
        "Name[et]": "Plastik",
        "Name[eu]": "Plastik",
        "Name[fr]": "Plastik",
        "Name[ia]": "Plastik",
        "Name[it]": "Plastik",
        "Name[ka]": "Plastik",
        "Name[nl]": "Plastik",
        "Name[pl]": "Plastik",
        "Name[pt]": "Plastik",
        "Name[ru]": "Пластик",
        "Name[sl]": "Plastik",
        "Name[tr]": "Plastik",
        "Name[uk]": "Пластик",
        "Name[vi]": "Plastik",
        "Name[x-test]": "xxPlastikxx",
        "Name[zh_CN]": "Plastik 百相",
        "Name[zh_TW]": "Plastik",
        "Version": "1.0"
    },
    "X-KWin-Config-TranslationDomain": "kwin_clients",
    "X-Plasma-MainScript": "ui/main.qml"
}
